{
  "name": "gateway-service",
  "$schema": "../../node_modules/nx/schemas/project-schema.json",
  "sourceRoot": "apps/gateway-service/src",
  "projectType": "application",
  "targets": {
    "serve": {
      "executor": "@nx/js:node",
      "defaultConfiguration": "development",
      "options": {
        "buildTarget": "gateway-service:build"
      },
      "configurations": {
        "development": {
          "buildTarget": "gateway-service:build:development"
        },
        "production": {
          "buildTarget": "gateway-service:build:production"
        }
      }
    }
  },
  "tags": []
}
